# Blender v2.70 (sub 0) OBJ File: ''
# www.blender.org
mtllib mamechi.mtl
o mesh0118_mesh0118-geometry
v -3.326759 -6.149725 -0.456817
v -2.631911 -7.145776 -1.695720
v -3.043901 -7.147015 -0.459863
v -2.876899 -6.148556 -1.806710
v -3.272618 -5.064025 -0.453052
v -2.829978 -5.064246 -1.750810
v -2.888506 -4.319186 -0.446410
v -2.497337 -4.320287 -1.553310
v -1.620678 -5.064407 -2.700840
v -1.428637 -4.321008 -2.363620
v 0.034475 -5.064479 -3.048580
v 0.034476 -4.321351 -2.660210
v 1.689622 -5.064412 -2.700840
v 1.497593 -4.321013 -2.363620
v 2.898932 -5.064255 -1.750810
v 2.566283 -4.320294 -1.553310
v 3.341562 -5.064035 -0.453052
v 2.957453 -4.319194 -0.446410
v 1.011374 -3.879671 0.535654
v 2.264904 -4.047313 0.359356
v 1.724054 -3.880373 0.119059
v 1.323624 -4.046592 0.941611
v 0.034477 -3.879460 0.688139
v 0.034477 -4.046360 1.154730
v -0.942426 -3.879668 0.535654
v -1.254676 -4.046588 0.941611
v -1.655096 -3.880367 0.119059
v -2.195956 -4.047307 0.359356
v -1.915956 -3.881357 -0.449535
v -2.540486 -4.048336 -0.434419
v -1.655096 -3.882368 -1.187800
v -2.195956 -4.049397 -1.364940
v -0.942429 -3.883139 -1.728240
v -1.254676 -4.050138 -2.046120
v 0.034477 -3.883470 -1.926050
v 0.034477 -4.050479 -2.295450
v 1.011384 -3.883142 -1.728240
v 1.323624 -4.050141 -2.046120
v 1.724054 -3.882373 -1.187800
v 2.264904 -4.049403 -1.364940
v 1.984904 -3.881363 -0.449535
v 2.609444 -4.048344 -0.434419
v -2.497326 -4.318116 0.524836
v -2.829978 -5.063826 0.741079
v -2.876899 -6.150746 0.785594
v -2.631911 -7.148226 0.677837
v -1.428637 -4.317368 1.236400
v -1.620678 -5.063677 1.615460
v -1.647789 -6.151507 1.695100
v -1.506341 -7.149087 1.510510
v 0.034472 -7.149350 1.815290
v 0.034474 -6.151750 2.028000
v 0.034475 -5.063640 1.935510
v 0.034476 -4.317141 1.496860
v 3.395701 -6.149735 -0.456817
v 2.945841 -6.148565 -1.806710
v 3.112839 -7.147025 -0.459863
v 2.700859 -7.145784 -1.695720
v 1.575289 -7.144832 -2.600440
v 1.716731 -6.147592 -2.794900
v 0.034474 -6.147240 -3.156610
v 0.034472 -7.144310 -2.931590
v -1.506341 -7.144827 -2.600440
v -1.647789 -6.147587 -2.794900
v 1.497583 -4.317372 1.236400
v 1.689622 -5.063682 1.615460
v 1.716741 -6.151512 1.695100
v 1.575289 -7.149092 1.510510
v 2.945841 -6.150754 0.785594
v 2.700859 -7.148234 0.677837
v 2.898932 -5.063834 0.741079
v 2.566283 -4.318124 0.524836
v 2.717668 -7.698114 -0.459781
v 2.358618 -7.697573 -1.512630
v 2.358618 -7.698634 0.509476
v 1.377678 -7.699002 1.218850
v 0.034471 -7.699111 1.478500
v -1.308732 -7.698998 1.218850
v -2.289682 -7.698627 0.509476
v -2.648732 -7.698106 -0.459781
v -2.289672 -7.697566 -1.512630
v -1.308732 -7.697157 -2.283380
v 0.034471 -7.696990 -2.565490
v 1.377678 -7.697161 -2.283380
v 2.554325 -9.693693 -0.438606
v 2.069145 -10.029902 -0.025025
v 2.305785 -10.029903 -0.436484
v 2.245135 -9.693693 0.098992
v 2.642166 -9.177644 -0.440801
v 2.307506 -9.177644 -1.022689
v 2.245135 -9.693693 -0.976205
v 2.069145 -10.029902 -0.847946
v 1.497845 -10.029902 -0.998029
v 1.498695 -9.693691 -1.172190
v 1.499556 -9.177642 -1.234800
v 1.504117 -8.253752 -1.244480
v 0.696240 -8.453031 -1.035450
v 0.652816 -8.332781 -1.190590
v 1.502608 -8.129842 -1.410680
v 1.092538 -8.159032 -1.692580
v 0.034471 -8.159460 -1.883600
v -1.023592 -8.159028 -1.692580
v -1.433662 -8.129838 -1.410680
v -2.278012 -7.852157 -1.169460
v -2.576232 -7.917646 -0.453847
v -2.242812 -8.020256 0.127867
v -2.277602 -7.852386 0.253771
v -1.433832 -8.129838 0.503399
v -0.699680 -8.146619 0.716375
v 0.034471 -8.144620 0.770000
v 0.768621 -8.146621 0.716375
v 1.502768 -8.129842 0.503399
v 2.346538 -7.852393 0.253771
v 2.645168 -7.917654 -0.453847
v 2.312218 -8.020134 -1.035170
v 2.346948 -7.852163 -1.169460
v 2.311748 -8.020264 0.127867
v 1.504117 -8.253562 0.344900
v 0.692571 -8.453271 0.127306
v 0.649727 -8.333151 0.273939
v 0.034470 -8.356600 0.255048
v -0.580787 -8.333149 0.273939
v -1.435173 -8.253558 0.344900
v 0.034470 -8.357039 -1.170720
v 0.292066 -8.413879 -0.457834
v 0.361393 -8.533831 -0.453847
v 0.691612 -9.177641 0.141091
v 1.499556 -9.177642 0.352519
v 2.307506 -9.177644 0.141090
v 1.498695 -9.693691 0.294300
v 1.497845 -10.029902 0.124377
v 0.752249 -9.693690 0.098992
v 0.926541 -10.029901 -0.025025
v 0.689899 -10.029901 -0.436485
v 0.443061 -9.693690 -0.438606
v 0.926541 -10.029901 -0.847946
v 0.752249 -9.693690 -0.976205
v 0.034470 -8.429160 -0.457834
v -0.583877 -8.332779 -1.190590
v -0.627300 -8.453029 -1.035450
v -1.435173 -8.253748 -1.244480
v -2.243272 -8.020126 -1.035170
v -2.573234 -9.177636 -0.440801
v -2.238564 -9.177636 0.141090
v -1.430624 -9.177638 0.352519
v -0.622675 -9.177639 0.141091
v -0.623632 -8.453269 0.127306
v -0.223126 -8.413879 -0.457834
v -0.292454 -8.533830 -0.453847
v -0.622675 -9.177639 -1.022689
v -1.430624 -9.177638 -1.234800
v -2.238564 -9.177636 -1.022689
v -2.176205 -9.693686 -0.976205
v -1.429755 -9.693687 -1.172190
v -0.683313 -9.693688 -0.976205
v -0.374126 -9.693688 -0.438606
v -0.288013 -9.177640 -0.440801
v -0.683313 -9.693688 0.098992
v -1.429755 -9.693687 0.294300
v -2.176205 -9.693686 0.098992
v -2.485385 -9.693686 -0.438606
v -2.000215 -10.029897 -0.847946
v -1.428905 -10.029898 -0.998029
v -0.857606 -10.029899 -0.847946
v -0.620964 -10.029899 -0.436485
v -0.857606 -10.029899 -0.025025
v -1.428905 -10.029898 0.124377
v -2.000215 -10.029897 -0.025025
v -2.236855 -10.029896 -0.436484
v -1.737275 -10.234497 -0.657132
v -1.428085 -10.234498 -0.738513
v -1.118896 -10.234498 -0.657132
v -0.990829 -10.234498 -0.434451
v -1.118896 -10.234498 -0.211771
v -1.428085 -10.234498 -0.131071
v -1.737275 -10.234497 -0.211771
v -1.865345 -10.234497 -0.434451
v -1.428086 -10.318297 -0.434792
v 0.691612 -9.177641 -1.022689
v 0.356950 -9.177641 -0.440801
v 0.034477 -3.724140 -0.448276
vt 0.026401 0.726491
vt 0.142773 0.968116
vt 0.042485 0.968116
vt 0.128128 0.726491
vt 0.031136 0.486798
vt 0.129667 0.486798
vt 0.044870 0.283595
vt 0.140866 0.283595
vt 0.297754 0.486798
vt 0.307693 0.283595
vt 0.458863 0.486798
vt 0.458863 0.283595
vt 0.619972 0.486798
vt 0.610033 0.283595
vt 0.788058 0.486798
vt 0.776859 0.283595
vt 0.886590 0.486798
vt 0.872855 0.283595
vt 0.914689 0.952957
vt 0.891324 0.726491
vt 0.789597 0.726491
vt 0.875241 0.968116
vt 0.774953 0.968116
vt 0.612385 0.968116
vt 0.620127 0.726491
vt 0.458863 0.726491
vt 0.458863 0.968116
vt 0.305341 0.968116
vt 0.297598 0.726491
vt 0.208087 0.012049
vt 0.208087 0.254287
vt 0.416533 0.254287
vt 0.006082 0.254287
vt 0.006082 0.012049
vt 0.416533 0.012049
vt 0.624980 0.254287
vt 0.624980 0.012049
vt 0.391962 0.224486
vt 0.722444 0.019238
vt 0.722444 0.214453
vt 0.760636 0.188488
vt 0.684253 0.188488
vt 0.656295 0.117551
vt 0.646062 0.019238
vt 0.788594 0.117551
vt 0.798827 0.019238
vn -0.993896 -0.109439 0.012177
vn -0.748192 -0.408734 -0.522568
vn -0.907102 -0.420728 0.010804
vn -0.817896 -0.095401 -0.567370
vn -0.967040 0.254097 0.014863
vn -0.790551 0.259346 -0.554735
vn -0.786157 0.617725 0.017701
vn -0.628529 0.626850 -0.460402
vn -0.408429 0.271828 -0.871364
vn -0.318003 0.632801 -0.705954
vn 0.001770 0.278329 -0.960479
vn 0.000458 0.634358 -0.773003
vn 0.410535 0.272561 -0.870144
vn 0.319926 0.628132 -0.709250
vn 0.789514 0.260109 -0.555834
vn 0.631611 0.621296 -0.463698
vn 0.968047 0.250496 0.010712
vn 0.784356 0.620136 0.013276
vn 0.076571 0.971221 0.225440
vn 0.369884 0.869350 0.327647
vn 0.150822 0.977203 0.149358
vn 0.177526 0.866268 0.466903
vn 0.000732 0.968902 0.247414
vn 0.002350 0.866451 0.499252
vn -0.075625 0.971587 0.224219
vn -0.173742 0.867489 0.466079
vn -0.150060 0.977783 0.146275
vn -0.368633 0.871944 0.322184
vn -0.190313 0.981689 0.006592
vn -0.480087 0.877102 0.013215
vn -0.165075 0.976592 -0.137852
vn -0.387341 0.874599 -0.291543
vn -0.094790 0.965514 -0.242439
vn -0.205817 0.863308 -0.460768
vn 0.000946 0.959746 -0.280831
vn -0.000855 0.856075 -0.516800
vn 0.095706 0.965087 -0.243782
vn 0.203223 0.865719 -0.457350
vn 0.165899 0.976012 -0.140751
vn 0.384747 0.877041 -0.287576
vn 0.191778 0.981384 0.007019
vn 0.480483 0.876736 0.021363
vn -0.614002 0.614856 0.494858
vn -0.766961 0.264565 0.584582
vn -0.799005 -0.095218 0.593707
vn -0.732871 -0.403088 0.548051
vn -0.293069 0.630757 0.718467
vn -0.383251 0.285226 0.878475
vn -0.405988 -0.071596 0.911039
vn -0.375652 -0.374767 0.847591
vn 0.000580 -0.363262 0.931669
vn 0.000000 -0.062716 0.998016
vn -0.001923 0.294015 0.955779
vn -0.001343 0.644215 0.764824
vn 0.994110 -0.107425 0.012207
vn 0.817652 -0.092868 -0.568133
vn 0.906430 -0.422132 0.010926
vn 0.747276 -0.410474 -0.522538
vn 0.395306 -0.391369 -0.830988
vn 0.429884 -0.069613 -0.900174
vn 0.000732 -0.060549 -0.998138
vn 0.000000 -0.383129 -0.923673
vn -0.394269 -0.390118 -0.832057
vn -0.428938 -0.071780 -0.900449
vn 0.289041 0.639485 0.712363
vn 0.379467 0.280618 0.881619
vn 0.404462 -0.073092 0.911618
vn 0.373974 -0.373791 0.848750
vn 0.800562 -0.095798 0.591510
vn 0.734153 -0.402997 0.546434
vn 0.771081 0.257759 0.582202
vn 0.608692 0.625996 0.487442
vn 0.868374 -0.495865 -0.000031
vn 0.580889 -0.682150 -0.444044
vn 0.587878 -0.646382 0.486343
vn 0.282022 -0.667776 0.688833
vn 0.000824 -0.678396 0.734672
vn -0.284768 -0.667409 0.688040
vn -0.586077 -0.645558 0.489608
vn -0.867489 -0.497299 0.010620
vn -0.579760 -0.684164 -0.442427
vn -0.304147 -0.687185 -0.659719
vn 0.000000 -0.687918 -0.725761
vn 0.305887 -0.685568 -0.660604
vn 0.930052 -0.367412 0.000336
vn 0.486284 -0.514983 0.705918
vn 0.804139 -0.594439 0.001800
vn 0.580126 -0.322916 0.747765
vn 0.996521 -0.083316 0.001007
vn 0.609851 -0.076022 -0.788842
vn 0.579150 -0.329051 -0.745811
vn 0.485804 -0.521804 -0.701224
vn -0.000410 -0.459992 -0.887923
vn 0.000000 -0.287088 -0.957884
vn 0.000488 -0.065737 -0.997833
vn 0.134373 -0.469955 -0.872372
vn -0.517899 -0.459853 -0.721305
vn -0.034669 -0.933866 -0.355876
vn 0.283517 -0.833735 -0.473769
vn 0.193945 -0.900143 -0.389966
vn 0.000000 -0.898709 -0.438520
vn -0.196478 -0.899441 -0.390332
vn -0.292184 -0.831446 -0.472488
vn -0.621570 -0.668050 -0.409040
vn -0.980987 -0.192999 0.019440
vn -0.683981 -0.307199 0.661611
vn -0.648671 -0.618793 0.443037
vn -0.250557 -0.796777 0.549852
vn -0.096744 -0.877743 0.469253
vn 0.000000 -0.887204 0.461318
vn 0.096744 -0.877743 0.469253
vn 0.259285 -0.798090 0.543870
vn 0.640065 -0.621632 0.451460
vn 0.980865 -0.194250 -0.011414
vn 0.681387 -0.326304 -0.655110
vn 0.629963 -0.664876 -0.401318
vn 0.662709 -0.318003 0.677969
vn 0.140568 -0.445357 0.884243
vn -0.505570 -0.453932 0.733696
vn -0.049684 -0.905026 0.422407
vn 0.000000 -0.971465 0.237129
vn 0.049348 -0.908261 0.415418
vn -0.129276 -0.450850 0.883145
vn 0.001312 -0.983490 -0.180853
vn -0.345225 -0.938383 -0.015229
vn -0.962127 -0.271981 -0.017243
vn -0.609516 -0.058077 0.790613
vn -0.000916 -0.049867 0.998749
vn 0.609027 -0.064272 0.790490
vn 0.000000 -0.278542 0.960418
vn -0.000409 -0.451039 0.892504
vn -0.580615 -0.320963 0.748192
vn -0.487517 -0.513264 0.706319
vn -0.806085 -0.591797 0.001804
vn -0.931150 -0.364544 0.000336
vn -0.487038 -0.520099 -0.701634
vn -0.579669 -0.327128 -0.746269
vn 0.002564 -0.999969 0.002991
vn 0.034120 -0.930937 -0.363506
vn 0.487472 -0.478835 -0.730094
vn -0.145054 -0.463607 -0.874081
vn -0.660237 -0.336863 -0.671224
vn -0.996490 -0.083529 0.001343
vn -0.609424 -0.064669 0.790155
vn 0.000244 -0.051515 0.998657
vn 0.609882 -0.060152 0.790185
vn 0.535112 -0.433760 0.724876
vn 0.343303 -0.939116 0.013459
vn 0.962676 -0.270089 0.016694
vn 0.609973 -0.074099 -0.788903
vn 0.000275 -0.064974 -0.997864
vn -0.609638 -0.076357 -0.788965
vn -0.579150 -0.329081 -0.745811
vn 0.579699 -0.327128 -0.746269
vn 0.931150 -0.364544 0.000336
vn 0.996948 -0.077822 0.001953
vn 0.580645 -0.320963 0.748192
vn -0.580096 -0.322916 0.747765
vn -0.930052 -0.367412 0.000336
vn -0.439711 -0.671499 -0.596393
vn 0.000031 -0.620655 -0.784051
vn 0.440779 -0.670217 -0.597064
vn 0.696310 -0.717704 0.000916
vn 0.442396 -0.665578 0.601032
vn 0.000031 -0.613788 0.789453
vn -0.441328 -0.666890 0.600360
vn -0.694449 -0.719504 0.000916
vn -0.192114 -0.933836 -0.301645
vn -0.014466 -0.886044 -0.463363
vn 0.244392 -0.900204 -0.360393
vn 0.384594 -0.923063 0.000824
vn 0.244881 -0.898648 0.363933
vn 0.000092 -0.877194 0.480117
vn -0.244209 -0.898923 0.363689
vn -0.371044 -0.928556 -0.007843
vn -0.016663 -0.999725 -0.015137
vn -0.610706 -0.074892 -0.788263
vn -0.997009 -0.076876 0.002564
vn 0.000000 0.999908 0.013092
usemtl mesh0115mat
s 1
f 1/1/1 2/2/2 3/3/3
f 1/1/1 4/4/4 2/2/2
f 4/4/4 1/1/1 5/5/5
f 5/5/5 6/6/6 4/4/4
f 7/7/7 6/6/6 5/5/5
f 8/8/8 6/6/6 7/7/7
f 8/8/8 9/9/9 6/6/6
f 10/10/10 9/9/9 8/8/8
f 10/10/10 11/11/11 9/9/9
f 12/12/12 11/11/11 10/10/10
f 12/12/12 13/13/13 11/11/11
f 14/14/14 13/13/13 12/12/12
f 14/14/14 15/15/15 13/13/13
f 16/16/16 15/15/15 14/14/14
f 16/16/16 17/17/17 15/15/15
f 18/18/18 17/17/17 16/16/16
f 19/19/19 20/19/20 21/19/21
f 19/19/19 22/19/22 20/19/20
f 23/19/23 22/19/22 19/19/19
f 23/19/23 24/19/24 22/19/22
f 25/19/25 24/19/24 23/19/23
f 25/19/25 26/19/26 24/19/24
f 27/19/27 26/19/26 25/19/25
f 27/19/27 28/19/28 26/19/26
f 29/19/29 28/19/28 27/19/27
f 29/19/29 30/19/30 28/19/28
f 31/19/31 30/19/30 29/19/29
f 31/19/31 32/19/32 30/19/30
f 33/19/33 32/19/32 31/19/31
f 33/19/33 34/19/34 32/19/32
f 35/19/35 34/19/34 33/19/33
f 35/19/35 36/19/36 34/19/34
f 37/19/37 36/19/36 35/19/35
f 37/19/37 38/19/38 36/19/36
f 39/19/39 38/19/38 37/19/37
f 39/19/39 40/19/40 38/19/38
f 41/19/41 40/19/40 39/19/39
f 41/19/41 42/19/42 40/19/40
f 21/19/21 42/19/42 41/19/41
f 20/19/20 42/19/42 21/19/21
f 18/19/18 42/19/42 20/19/20
f 16/19/16 42/19/42 18/19/18
f 16/19/16 40/19/40 42/19/42
f 14/19/14 40/19/40 16/19/16
f 14/19/14 38/19/38 40/19/40
f 12/19/12 38/19/38 14/19/14
f 12/19/12 36/19/36 38/19/38
f 10/19/10 36/19/36 12/19/12
f 10/19/10 34/19/34 36/19/36
f 8/19/8 34/19/34 10/19/10
f 8/19/8 32/19/32 34/19/34
f 7/19/7 32/19/32 8/19/8
f 7/19/7 30/19/30 32/19/32
f 7/19/7 43/19/43 30/19/30
f 5/19/5 43/19/43 7/19/7
f 5/19/5 44/19/44 43/19/43
f 5/19/5 45/19/45 44/19/44
f 1/19/1 45/19/45 5/19/5
f 1/19/1 46/19/46 45/19/45
f 46/19/46 1/19/1 3/19/3
f 43/19/43 28/19/28 30/19/30
f 43/19/43 47/19/47 28/19/28
f 44/19/44 47/19/47 43/19/43
f 44/19/44 48/19/48 47/19/47
f 45/19/45 48/19/48 44/19/44
f 45/19/45 49/19/49 48/19/48
f 46/19/46 49/19/49 45/19/45
f 50/19/50 49/19/49 46/19/46
f 51/19/51 49/19/49 50/19/50
f 52/19/52 49/19/49 51/19/51
f 52/19/52 48/19/48 49/19/49
f 53/19/53 48/19/48 52/19/52
f 54/19/54 48/19/48 53/19/53
f 54/19/54 47/19/47 48/19/48
f 26/19/26 47/19/47 54/19/54
f 26/19/26 28/19/28 47/19/47
f 55/20/55 15/15/15 17/17/17
f 55/20/55 56/21/56 15/15/15
f 57/22/57 56/21/56 55/20/55
f 58/23/58 56/21/56 57/22/57
f 59/24/59 56/21/56 58/23/58
f 60/25/60 56/21/56 59/24/59
f 13/13/13 56/21/56 60/25/60
f 13/13/13 15/15/15 56/21/56
f 60/25/60 11/11/11 13/13/13
f 60/25/60 61/26/61 11/11/11
f 59/24/59 61/26/61 60/25/60
f 62/27/62 61/26/61 59/24/59
f 63/28/63 61/26/61 62/27/62
f 63/28/63 64/29/64 61/26/61
f 2/2/2 64/29/64 63/28/63
f 4/4/4 64/29/64 2/2/2
f 6/6/6 64/29/64 4/4/4
f 9/9/9 64/29/64 6/6/6
f 9/9/9 61/26/61 64/29/64
f 11/11/11 61/26/61 9/9/9
f 54/19/54 24/19/24 26/19/26
f 54/19/54 65/19/65 24/19/24
f 53/19/53 65/19/65 54/19/54
f 53/19/53 66/19/66 65/19/65
f 52/19/52 66/19/66 53/19/53
f 52/19/52 67/19/67 66/19/66
f 51/19/51 67/19/67 52/19/52
f 68/19/68 67/19/67 51/19/51
f 68/19/68 69/19/69 67/19/67
f 70/19/70 69/19/69 68/19/68
f 57/19/57 69/19/69 70/19/70
f 55/19/55 69/19/69 57/19/57
f 55/19/55 71/19/71 69/19/69
f 17/19/17 71/19/71 55/19/55
f 18/19/18 71/19/71 17/19/17
f 18/19/18 72/19/72 71/19/71
f 20/19/20 72/19/72 18/19/18
f 22/19/22 72/19/72 20/19/20
f 22/19/22 65/19/65 72/19/72
f 24/19/24 65/19/65 22/19/22
f 66/19/66 72/19/72 65/19/65
f 66/19/66 71/19/71 72/19/72
f 67/19/67 71/19/71 66/19/66
f 67/19/67 69/19/69 71/19/71
f 57/30/57 73/31/73 74/32/74
f 57/30/57 75/33/75 73/31/73
f 70/34/70 75/33/75 57/30/57
f 68/30/68 75/33/75 70/34/70
f 68/30/68 76/31/76 75/33/75
f 68/30/68 77/32/77 76/31/76
f 51/35/51 77/32/77 68/30/68
f 51/35/51 78/36/78 77/32/77
f 50/37/50 78/36/78 51/35/51
f 46/35/46 78/36/78 50/37/50
f 46/35/46 79/32/79 78/36/78
f 46/35/46 80/31/80 79/32/79
f 3/30/3 80/31/80 46/35/46
f 2/34/2 80/31/80 3/30/3
f 2/34/2 81/33/81 80/31/80
f 63/30/63 81/33/81 2/34/2
f 63/30/63 82/31/82 81/33/81
f 62/35/62 82/31/82 63/30/63
f 62/35/62 83/32/83 82/31/82
f 62/35/62 84/36/84 83/32/83
f 59/37/59 84/36/84 62/35/62
f 58/35/58 84/36/84 59/37/59
f 58/35/58 74/32/74 84/36/84
f 57/30/57 74/32/74 58/35/58
f 85/38/85 86/38/86 87/38/87
f 85/38/85 88/38/88 86/38/86
f 85/38/85 89/38/89 88/38/88
f 85/38/85 90/38/90 89/38/89
f 85/38/85 91/38/91 90/38/90
f 87/38/87 91/38/91 85/38/85
f 92/38/92 91/38/91 87/38/87
f 93/38/93 91/38/91 92/38/92
f 94/38/94 91/38/91 93/38/93
f 94/38/94 90/38/90 91/38/91
f 95/38/95 90/38/90 94/38/94
f 95/38/95 96/38/96 90/38/90
f 97/38/97 96/38/96 95/38/95
f 98/38/98 96/38/96 97/38/97
f 98/38/98 99/38/99 96/38/96
f 100/38/100 99/38/99 98/38/98
f 100/38/100 74/38/74 99/38/99
f 100/38/100 84/38/84 74/38/74
f 100/38/100 83/38/83 84/38/84
f 101/38/101 83/38/83 100/38/100
f 102/38/102 83/38/83 101/38/101
f 102/38/102 82/38/82 83/38/83
f 103/38/103 82/38/82 102/38/102
f 103/38/103 81/38/81 82/38/82
f 104/38/104 81/38/81 103/38/103
f 104/38/104 80/38/80 81/38/81
f 105/38/105 80/38/80 104/38/104
f 106/38/106 80/38/80 105/38/105
f 107/38/107 80/38/80 106/38/106
f 107/38/107 79/38/79 80/38/80
f 108/38/108 79/38/79 107/38/107
f 108/38/108 78/38/78 79/38/79
f 109/38/109 78/38/78 108/38/108
f 109/38/109 77/38/77 78/38/78
f 110/38/110 77/38/77 109/38/109
f 111/38/111 77/38/77 110/38/110
f 111/38/111 76/38/76 77/38/77
f 112/38/112 76/38/76 111/38/111
f 112/38/112 75/38/75 76/38/76
f 113/38/113 75/38/75 112/38/112
f 113/38/113 73/38/73 75/38/75
f 114/38/114 73/38/73 113/38/113
f 115/38/115 73/38/73 114/38/114
f 116/38/116 73/38/73 115/38/115
f 116/38/116 74/38/74 73/38/73
f 116/38/116 99/38/99 74/38/74
f 115/38/115 99/38/99 116/38/116
f 115/38/115 96/38/96 99/38/99
f 115/38/115 90/38/90 96/38/96
f 114/38/114 90/38/90 115/38/115
f 114/38/114 89/38/89 90/38/90
f 114/38/114 117/38/117 89/38/89
f 113/38/113 117/38/117 114/38/114
f 113/38/113 118/38/118 117/38/117
f 112/38/112 118/38/118 113/38/113
f 112/38/112 119/38/119 118/38/118
f 112/38/112 120/38/120 119/38/119
f 111/38/111 120/38/120 112/38/112
f 111/38/111 121/38/121 120/38/120
f 110/38/110 121/38/121 111/38/111
f 109/38/109 121/38/121 110/38/110
f 109/38/109 122/38/122 121/38/121
f 108/38/108 122/38/122 109/38/109
f 108/38/108 123/38/123 122/38/122
f 108/38/108 106/38/106 123/38/123
f 107/38/107 106/38/106 108/38/108
f 98/38/98 101/38/101 100/38/100
f 98/38/98 124/38/124 101/38/101
f 98/38/98 125/38/125 124/38/124
f 97/38/97 125/38/125 98/38/98
f 126/38/126 125/38/125 97/38/97
f 126/38/126 120/38/120 125/38/125
f 126/38/126 119/38/119 120/38/120
f 127/38/127 119/38/119 126/38/126
f 128/38/128 119/38/119 127/38/127
f 128/38/128 118/38/118 119/38/119
f 128/38/128 117/38/117 118/38/118
f 129/38/129 117/38/117 128/38/128
f 129/38/129 89/38/89 117/38/117
f 129/38/129 88/38/88 89/38/89
f 128/38/128 88/38/88 129/38/129
f 130/38/130 88/38/88 128/38/128
f 130/38/130 86/38/86 88/38/88
f 130/38/130 131/38/131 86/38/86
f 132/38/132 131/38/131 130/38/130
f 132/38/132 133/38/133 131/38/131
f 132/38/132 134/38/134 133/38/133
f 135/38/135 134/38/134 132/38/132
f 135/38/135 136/38/136 134/38/134
f 137/38/137 136/38/136 135/38/135
f 94/38/94 136/38/136 137/38/137
f 94/38/94 93/38/93 136/38/136
f 121/38/121 125/38/125 120/38/120
f 138/38/138 125/38/125 121/38/121
f 138/38/138 124/38/124 125/38/125
f 139/38/139 124/38/124 138/38/138
f 139/38/139 101/38/101 124/38/124
f 139/38/139 102/38/102 101/38/101
f 139/38/139 103/38/103 102/38/102
f 140/38/140 103/38/103 139/38/139
f 141/38/141 103/38/103 140/38/140
f 141/38/141 104/38/104 103/38/103
f 142/38/142 104/38/104 141/38/141
f 142/38/142 105/38/105 104/38/104
f 143/38/143 105/38/105 142/38/142
f 144/38/144 105/38/105 143/38/143
f 144/38/144 106/38/106 105/38/105
f 144/38/144 123/38/123 106/38/106
f 145/38/145 123/38/123 144/38/144
f 146/38/146 123/38/123 145/38/145
f 147/38/147 123/38/123 146/38/146
f 147/38/147 122/38/122 123/38/123
f 148/38/148 122/38/122 147/38/147
f 148/38/148 121/38/121 122/38/122
f 148/38/148 138/38/138 121/38/121
f 148/38/148 139/38/139 138/38/138
f 149/38/149 139/38/139 148/38/148
f 149/38/149 140/38/140 139/38/139
f 150/38/150 140/38/140 149/38/149
f 150/38/150 141/38/141 140/38/140
f 151/38/151 141/38/141 150/38/150
f 151/38/151 142/38/142 141/38/141
f 152/38/152 142/38/142 151/38/151
f 152/38/152 143/38/143 142/38/142
f 152/38/152 153/38/153 143/38/143
f 151/38/151 153/38/153 152/38/152
f 151/38/151 154/38/94 153/38/153
f 150/38/150 154/38/94 151/38/151
f 150/38/150 155/38/154 154/38/94
f 150/38/150 156/38/155 155/38/154
f 150/38/150 157/38/156 156/38/155
f 149/38/149 157/38/156 150/38/150
f 149/38/149 147/38/147 157/38/156
f 148/38/148 147/38/147 149/38/149
f 145/38/145 158/38/157 146/38/146
f 145/38/145 159/38/130 158/38/157
f 144/38/144 159/38/130 145/38/145
f 144/38/144 160/38/158 159/38/130
f 144/38/144 161/38/159 160/38/158
f 143/38/143 161/38/159 144/38/144
f 153/38/153 161/38/159 143/38/143
f 153/38/153 162/38/160 161/38/159
f 154/38/94 162/38/160 153/38/153
f 154/38/94 163/38/161 162/38/160
f 155/38/154 163/38/161 154/38/94
f 155/38/154 164/38/162 163/38/161
f 155/38/154 165/38/163 164/38/162
f 156/38/155 165/38/163 155/38/154
f 156/38/155 166/38/164 165/38/163
f 156/38/155 158/38/157 166/38/164
f 157/38/156 158/38/157 156/38/155
f 157/38/156 146/38/146 158/38/157
f 147/38/147 146/38/146 157/38/156
f 159/38/130 166/38/164 158/38/157
f 159/38/130 167/38/165 166/38/164
f 160/38/158 167/38/165 159/38/130
f 160/38/158 168/38/166 167/38/165
f 160/38/158 169/38/167 168/38/166
f 161/38/159 169/38/167 160/38/158
f 162/38/160 169/38/167 161/38/159
f 162/38/160 170/38/168 169/38/167
f 163/38/161 170/38/168 162/38/160
f 163/38/161 171/38/169 170/38/168
f 164/38/162 171/38/169 163/38/161
f 164/38/162 172/38/170 171/38/169
f 164/38/162 173/38/171 172/38/170
f 165/38/163 173/38/171 164/38/162
f 165/38/163 174/38/172 173/38/171
f 166/38/164 174/38/172 165/38/163
f 167/38/165 174/38/172 166/38/164
f 167/38/165 175/38/173 174/38/172
f 168/38/166 175/38/173 167/38/165
f 168/38/166 176/38/174 175/38/173
f 168/38/166 177/38/175 176/38/174
f 169/38/167 177/38/175 168/38/166
f 170/38/168 177/38/175 169/38/167
f 171/38/169 177/38/175 170/38/168
f 171/38/169 178/38/176 177/38/175
f 172/38/170 178/38/176 171/38/169
f 173/38/171 178/38/176 172/38/170
f 174/38/172 178/38/176 173/38/171
f 175/38/173 178/38/176 174/38/172
f 176/38/174 178/38/176 175/38/173
f 176/38/174 177/38/175 178/38/176
f 137/38/137 95/38/95 94/38/94
f 179/38/177 95/38/95 137/38/137
f 179/38/177 97/38/97 95/38/95
f 180/38/178 97/38/97 179/38/177
f 180/38/178 126/38/126 97/38/97
f 180/38/178 127/38/127 126/38/126
f 180/38/178 135/38/135 127/38/127
f 180/38/178 137/38/137 135/38/135
f 179/38/177 137/38/137 180/38/178
f 127/38/127 130/38/130 128/38/128
f 127/38/127 132/38/132 130/38/130
f 135/38/135 132/38/132 127/38/127
f 181/39/179 29/40/29 27/41/27
f 181/39/179 31/42/31 29/40/29
f 181/39/179 33/43/33 31/42/31
f 181/39/179 35/44/35 33/43/33
f 181/39/179 37/43/37 35/44/35
f 181/39/179 39/42/39 37/43/37
f 181/39/179 41/40/41 39/42/39
f 181/39/179 21/41/21 41/40/41
f 181/39/179 19/45/19 21/41/21
f 181/39/179 23/46/23 19/45/19
f 181/39/179 25/45/25 23/46/23
f 27/41/27 25/45/25 181/39/179
o mesh0120_mesh0120-geometry
v 1.059765 -10.234502 -0.434451
v 1.497025 -10.234502 -0.738513
v 1.497024 -10.318301 -0.434792
v 1.187835 -10.234502 -0.657132
v 0.689899 -10.029901 -0.436485
v 0.926541 -10.029901 -0.025025
v 0.926541 -10.029901 -0.847946
v 1.497845 -10.029902 -0.998029
v 2.069145 -10.029902 -0.847946
v 1.806205 -10.234503 -0.657132
v 1.934275 -10.234503 -0.434451
v 2.305785 -10.029903 -0.436484
v 1.806205 -10.234503 -0.211771
v 2.069145 -10.029902 -0.025025
v 1.497845 -10.029902 0.124377
v 1.497025 -10.234502 -0.131071
v 1.187835 -10.234502 -0.211771
vt 0.391962 0.224486
vn -0.359478 -0.933134 0.000855
vn -0.014801 -0.886044 -0.463363
vn -0.016877 -0.999725 0.015076
vn -0.192785 -0.933592 -0.301981
vn -0.484050 -0.875040 -0.000528
vn -0.353806 -0.835567 0.420297
vn -0.351003 -0.837967 -0.417861
vn 0.000149 -0.785342 -0.619063
vn 0.350414 -0.838810 -0.416662
vn 0.243782 -0.900510 -0.360057
vn 0.370983 -0.928556 0.009522
vn 0.482403 -0.875949 -0.000521
vn 0.192816 -0.932524 0.305216
vn 0.353204 -0.836429 0.419087
vn 0.000152 -0.780462 0.625204
vn -0.000244 -0.891079 0.453780
vn -0.193426 -0.932249 0.305704
usemtl mesh0115mat
s 1
f 182/47/180 183/47/181 184/47/182
f 182/47/180 185/47/183 183/47/181
f 186/47/184 182/47/180 187/47/185
f 185/47/183 182/47/180 186/47/184
f 188/47/186 185/47/183 186/47/184
f 189/47/187 185/47/183 188/47/186
f 189/47/187 183/47/181 185/47/183
f 190/47/188 183/47/181 189/47/187
f 191/47/189 183/47/181 190/47/188
f 191/47/189 184/47/182 183/47/181
f 191/47/189 192/47/190 184/47/182
f 190/47/188 192/47/190 191/47/189
f 193/47/191 192/47/190 190/47/188
f 193/47/191 194/47/192 192/47/190
f 195/47/193 194/47/192 193/47/191
f 196/47/194 194/47/192 195/47/193
f 196/47/194 197/47/195 194/47/192
f 187/47/185 197/47/195 196/47/194
f 187/47/185 198/47/196 197/47/195
f 182/47/180 198/47/196 187/47/185
f 182/47/180 197/47/195 198/47/196
f 197/47/195 182/47/180 184/47/182
f 192/47/190 197/47/195 184/47/182
f 192/47/190 194/47/192 197/47/195
o mesh0116_mesh0116-geometry
v -2.914255 -3.459805 -0.496505
v -2.755755 -3.211506 -0.484671
v -2.755755 -3.327876 -0.773712
v -2.755755 -3.327876 -0.180672
v -2.755755 -3.585896 -0.180672
v -2.755756 -3.717726 -0.484671
v -2.755755 -3.585896 -0.773712
v -2.413895 -3.271697 -0.825513
v -2.413895 -3.128587 -0.483808
v -2.413895 -3.262646 -0.101397
v -2.413895 -3.607076 -0.124784
v -2.413896 -3.772506 -0.483807
v -2.413895 -3.620787 -0.791376
v -2.064695 -3.224747 -0.867082
v -2.064696 -3.644247 -0.805665
v -2.072156 -3.793497 -0.481364
v -2.079236 -3.619597 -0.101139
v -2.079235 -3.208457 -0.059063
v -2.072155 -3.074447 -0.481364
v -1.730175 -3.007787 -0.478244
v -1.730175 -3.181798 -0.892081
v -1.730176 -3.660098 -0.816428
v -1.730176 -3.810437 -0.478244
v -1.730175 -3.628347 -0.056088
v -1.730175 -3.159447 -0.020177
v -1.440595 -3.092688 0.034912
v -1.507534 -2.929128 -0.476887
v -1.459325 -3.121248 -0.936389
v -1.471225 -3.422108 -0.972126
v -1.483126 -3.682648 -0.831015
v -1.478666 -3.841048 -0.476887
v -1.473405 -3.650008 -0.011218
v -1.295573 -1.802068 -0.041339
v -1.280812 -1.513138 -0.169875
v -1.406653 -1.692818 -0.532492
v -0.688946 -1.454489 -0.109038
v -0.744173 -1.669999 0.259400
v -0.000002 -1.449080 -0.055532
v -0.000002 -1.399530 -0.437509
v -0.612177 -1.406889 -0.437509
v -0.689060 -1.450229 -0.781434
v -0.000002 -1.450250 -0.831885
v -0.000003 -1.755870 -1.235400
v -0.804248 -1.757289 -1.144460
v -0.889246 -1.518239 -0.936614
v -1.220803 -1.633188 -0.912379
v -1.240923 -2.202518 -1.075410
v -1.209551 -0.920009 -0.777371
v -0.894373 -0.923700 -0.776310
v -0.796070 -0.919757 -0.591143
v -0.897865 -0.903435 -0.373709
v -1.225071 -0.894839 -0.373990
v -1.309061 -0.907465 -0.599161
v -1.066191 -0.725820 -0.590585
vt 0.816222 0.955436
vn -0.999695 0.003510 -0.023591
vn -0.541765 0.840480 -0.007935
vn -0.542436 0.453871 -0.706900
vn -0.576067 0.444746 0.685812
vn -0.539384 -0.458663 0.706137
vn -0.507340 -0.861629 -0.011261
vn -0.505448 -0.464187 -0.727348
vn -0.175329 0.513932 -0.839686
vn -0.202185 0.978820 -0.031861
vn -0.227515 0.522233 0.821863
vn -0.129643 -0.554704 0.821863
vn -0.109134 -0.993927 -0.012726
vn -0.097751 -0.576769 -0.810999
vn -0.143468 0.491379 -0.859035
vn -0.061525 -0.597583 -0.799432
vn -0.057802 -0.998321 -0.000092
vn -0.100253 -0.585803 0.804193
vn -0.178198 0.539628 0.822810
vn -0.174780 0.983947 -0.035157
vn -0.259163 0.965361 -0.029878
vn -0.245003 0.498276 -0.831660
vn -0.128452 -0.638844 -0.758507
vn -0.088809 -0.996033 -0.002564
vn -0.148320 -0.578326 0.802179
vn -0.228889 0.531968 0.815210
vn -0.284445 0.537051 0.794145
vn -0.325101 0.945461 -0.020328
vn -0.256517 0.583729 -0.770364
vn -0.280813 -0.148620 -0.948186
vn -0.106774 -0.728894 -0.676249
vn -0.126084 -0.992011 -0.004062
vn -0.186843 -0.557062 0.809179
vn -0.594559 0.489671 0.637748
vn -0.657430 0.313761 0.685049
vn -0.982162 0.144882 -0.119865
vn 0.036134 0.821070 0.569628
vn -0.269748 0.848257 0.455736
vn -0.025518 0.972802 0.230229
vn -0.013202 0.999908 0.003049
vn 0.506577 0.860958 0.045717
vn 0.400525 0.699545 -0.591723
vn -0.028410 0.921052 -0.388401
vn -0.055346 0.787305 -0.614075
vn -0.166460 0.608216 -0.776121
vn 0.079348 0.494003 -0.865810
vn -0.642445 0.248482 -0.724876
vn -0.649050 0.230538 -0.724973
vn -0.469436 0.442518 -0.764031
vn 0.422040 0.521287 -0.741661
vn 0.808313 0.585192 -0.064425
vn 0.429456 0.654714 0.621998
vn -0.524461 0.565783 0.636219
vn -0.883450 0.457320 -0.101535
vn -0.007660 0.997772 -0.066195
usemtl mesh0115mat
s 1
f 199/48/197 200/48/198 201/48/199
f 199/48/197 202/48/200 200/48/198
f 199/48/197 203/48/201 202/48/200
f 199/48/197 204/48/202 203/48/201
f 199/48/197 205/48/203 204/48/202
f 205/48/203 199/48/197 201/48/199
f 201/48/199 206/48/204 205/48/203
f 200/48/198 206/48/204 201/48/199
f 200/48/198 207/48/205 206/48/204
f 202/48/200 207/48/205 200/48/198
f 202/48/200 208/48/206 207/48/205
f 202/48/200 209/48/207 208/48/206
f 203/48/201 209/48/207 202/48/200
f 203/48/201 210/48/208 209/48/207
f 204/48/202 210/48/208 203/48/201
f 204/48/202 211/48/209 210/48/208
f 205/48/203 211/48/209 204/48/202
f 206/48/204 211/48/209 205/48/203
f 212/48/210 211/48/209 206/48/204
f 213/48/211 211/48/209 212/48/210
f 213/48/211 210/48/208 211/48/209
f 214/48/212 210/48/208 213/48/211
f 214/48/212 209/48/207 210/48/208
f 215/48/213 209/48/207 214/48/212
f 215/48/213 208/48/206 209/48/207
f 216/48/214 208/48/206 215/48/213
f 216/48/214 207/48/205 208/48/206
f 217/48/215 207/48/205 216/48/214
f 217/48/215 206/48/204 207/48/205
f 217/48/215 212/48/210 206/48/204
f 218/48/216 212/48/210 217/48/215
f 219/48/217 212/48/210 218/48/216
f 219/48/217 213/48/211 212/48/210
f 220/48/218 213/48/211 219/48/217
f 220/48/218 214/48/212 213/48/211
f 221/48/219 214/48/212 220/48/218
f 221/48/219 215/48/213 214/48/212
f 222/48/220 215/48/213 221/48/219
f 222/48/220 216/48/214 215/48/213
f 223/48/221 216/48/214 222/48/220
f 223/48/221 217/48/215 216/48/214
f 223/48/221 218/48/216 217/48/215
f 224/48/222 218/48/216 223/48/221
f 225/48/223 218/48/216 224/48/222
f 225/48/223 219/48/217 218/48/216
f 226/48/224 219/48/217 225/48/223
f 227/48/225 219/48/217 226/48/224
f 227/48/225 220/48/218 219/48/217
f 228/48/226 220/48/218 227/48/225
f 228/48/226 221/48/219 220/48/218
f 229/48/227 221/48/219 228/48/226
f 229/48/227 222/48/220 221/48/219
f 230/48/228 222/48/220 229/48/227
f 230/48/228 223/48/221 222/48/220
f 224/48/222 223/48/221 230/48/228
s 2
f 231/48/229 232/48/230 233/48/231
f 231/48/229 234/48/232 232/48/230
f 235/48/233 234/48/232 231/48/229
f 236/48/234 234/48/232 235/48/233
f 237/48/235 234/48/232 236/48/234
f 237/48/235 238/48/236 234/48/232
f 237/48/235 239/48/237 238/48/236
f 240/48/238 239/48/237 237/48/235
f 241/48/239 239/48/237 240/48/238
f 242/48/240 239/48/237 241/48/239
f 242/48/240 243/48/241 239/48/237
f 242/48/240 244/48/242 243/48/241
f 245/48/243 244/48/242 242/48/240
f 233/48/231 244/48/242 245/48/243
f 246/48/244 244/48/242 233/48/231
f 247/48/245 244/48/242 246/48/244
f 247/48/245 243/48/241 244/48/242
f 247/48/245 239/48/237 243/48/241
f 248/48/246 239/48/237 247/48/245
f 248/48/246 238/48/236 239/48/237
f 249/48/247 238/48/236 248/48/246
f 249/48/247 234/48/232 238/48/236
f 250/48/248 234/48/232 249/48/247
f 250/48/248 232/48/230 234/48/232
f 250/48/248 233/48/231 232/48/230
f 251/48/249 233/48/231 250/48/248
f 251/48/249 246/48/244 233/48/231
f 252/48/250 246/48/244 251/48/249
f 252/48/250 247/48/245 246/48/244
f 252/48/250 248/48/246 247/48/245
f 252/48/250 249/48/247 248/48/246
f 252/48/250 250/48/248 249/48/247
f 251/48/249 250/48/248 252/48/250
o mesh0115_mesh0115-geometry
v 0.612173 -1.406891 -0.437509
v -0.000002 -1.399530 -0.437509
v -0.000002 -1.449080 -0.055532
v -0.000002 -1.450250 -0.831885
v 0.689056 -1.450231 -0.781434
v 0.804242 -1.757291 -1.144460
v -0.000003 -1.755870 -1.235400
v 0.867431 -2.212512 -1.320650
v -0.000003 -2.215100 -1.432400
v -0.804248 -1.757289 -1.144460
v -0.867437 -2.212509 -1.320650
v -1.240923 -2.202518 -1.075410
v -1.325084 -2.741078 -1.040590
v -1.440383 -2.175838 -0.504537
v -1.406653 -1.692818 -0.532492
v -1.295573 -1.802068 -0.041339
v -1.326893 -2.169038 0.016990
v -0.744173 -1.669999 0.259400
v -0.781941 -2.141819 0.466345
v -0.000002 -1.638760 0.318520
v 0.688942 -1.454491 -0.109038
v 0.897863 -0.903437 -0.373709
v 0.796068 -0.919759 -0.591143
v 0.894371 -0.923702 -0.776310
v 0.889242 -1.518241 -0.936614
v 1.220798 -1.633192 -0.912379
v 1.240917 -2.202522 -1.075410
v 1.325076 -2.741082 -1.040590
v 0.912018 -2.781222 -1.342839
v -0.000004 -2.795130 -1.459620
v -0.912026 -2.781219 -1.342839
v -1.459325 -3.121248 -0.936389
v -1.474144 -2.684488 -0.504537
v -1.507534 -2.929128 -0.476887
v -1.440595 -3.092688 0.034912
v -1.380264 -2.697328 0.059207
v -0.843414 -2.692329 0.449181
v -0.867600 -3.139359 0.355642
v -1.473405 -3.650008 -0.011218
v -0.893508 -3.702749 0.113833
v -0.947894 -3.962989 -0.476887
v -1.478666 -3.841048 -0.476887
v -0.959145 -3.845869 -0.936091
v -1.483126 -3.682648 -0.831015
v -0.956608 -3.672009 -1.118900
v -1.471225 -3.422108 -0.972126
v -0.946527 -3.242749 -1.276530
v -0.000005 -3.242750 -1.405500
v 0.946517 -3.242752 -1.276530
v 1.459315 -3.121252 -0.936389
v 1.474136 -2.684492 -0.504537
v 1.440377 -2.175842 -0.504537
v 1.406647 -1.692822 -0.532492
v 1.309059 -0.907469 -0.599161
v 1.209549 -0.920013 -0.777371
v 1.066189 -0.725823 -0.590585
v 1.225069 -0.894843 -0.373990
v 2.064685 -3.644253 -0.805665
v 2.072144 -3.793503 -0.481364
v 1.730164 -3.810443 -0.478244
v 2.413884 -3.620794 -0.791376
v 2.413885 -3.271704 -0.825513
v 2.755745 -3.327884 -0.773712
v 2.413885 -3.128594 -0.483808
v 2.755745 -3.211514 -0.484671
v 2.413885 -3.262654 -0.101397
v 2.755745 -3.327884 -0.180672
v 2.755744 -3.585904 -0.180672
v 2.413884 -3.607084 -0.124784
v 2.755744 -3.717734 -0.484671
v 2.413884 -3.772514 -0.483807
v 2.079225 -3.619603 -0.101139
v 1.730165 -3.628353 -0.056088
v 1.473395 -3.650012 -0.011218
v 1.478654 -3.841052 -0.476887
v 0.893496 -3.702751 0.113833
v 1.440585 -3.092692 0.034912
v 1.730165 -3.159453 -0.020177
v 2.079225 -3.208463 -0.059063
v 2.072145 -3.074453 -0.481364
v 2.064685 -3.224753 -0.867082
v 1.730164 -3.660103 -0.816428
v 1.483114 -3.682652 -0.831015
v 0.947882 -3.962991 -0.476887
v 0.959133 -3.845872 -0.936091
v -0.000006 -3.890550 -1.004630
v 0.956596 -3.672012 -1.118900
v 1.471215 -3.422112 -0.972126
v 1.730165 -3.181803 -0.892081
v 1.730165 -3.007793 -0.478244
v 1.507526 -2.929132 -0.476887
v -0.000006 -3.674590 -1.249150
v -0.000006 -3.752070 0.171404
v -0.000006 -4.025780 -0.476887
v 0.867590 -3.139361 0.355642
v 1.380256 -2.697332 0.059207
v 1.326887 -2.169042 0.016990
v 1.295567 -1.802072 -0.041339
v 1.280808 -1.513142 -0.169875
v 0.744167 -1.670001 0.259400
v -0.000003 -2.128380 0.554330
v -0.000004 -2.692330 0.568171
v -0.000005 -3.135780 0.480606
v 0.781935 -2.141821 0.466345
v 0.843406 -2.692331 0.449181
v 2.755744 -3.585905 -0.773712
v 2.914245 -3.459815 -0.496505
vt 0.816222 0.955436
vn -0.505936 0.861446 0.043489
vn 0.012023 0.999928 0.000546
vn 0.002282 0.939174 0.343435
vn 0.038797 0.918106 -0.394431
vn -0.404950 0.694510 -0.594653
vn 0.192724 0.524003 -0.829615
vn 0.025712 0.534454 -0.844807
vn 0.335887 0.215400 -0.916929
vn 0.001679 0.219214 -0.975646
vn -0.242888 0.383901 -0.890857
vn -0.337565 0.213477 -0.916745
vn -0.762447 0.134234 -0.632973
vn -0.788812 0.092074 -0.607654
vn -0.995025 0.084445 -0.052583
vn -0.997546 0.069896 0.004054
vn -0.810246 0.149224 0.566775
vn -0.829798 0.164037 0.533372
vn -0.305426 0.461679 0.832807
vn -0.359416 0.213416 0.908414
vn -0.008118 0.691183 0.722617
vn -0.073855 0.847468 0.525651
vn -0.413862 0.636341 0.650929
vn -0.808313 0.585192 -0.064425
vn -0.431440 0.532121 -0.728446
vn -0.097140 0.478835 -0.872494
vn 0.645405 0.233619 -0.727226
vn 0.738487 0.156652 -0.655782
vn 0.788812 0.092074 -0.607654
vn 0.360729 -0.017670 -0.932463
vn 0.000885 -0.037965 -0.999268
vn -0.361583 -0.016419 -0.932157
vn -0.739445 0.107843 -0.664524
vn -0.992340 0.114750 -0.045656
vn -0.990381 0.137202 0.017938
vn -0.715521 0.017315 0.698377
vn -0.838343 0.094394 0.536882
vn -0.355998 -0.062746 0.932340
vn -0.285562 -0.245033 0.926481
vn -0.307729 -0.633048 0.710319
vn -0.154729 -0.688620 0.708365
vn -0.141484 -0.986602 0.080905
vn -0.265409 -0.963779 0.026218
vn -0.195929 -0.853175 -0.483383
vn -0.393559 -0.693291 -0.603705
vn -0.249092 -0.526292 -0.812983
vn -0.475685 -0.192271 -0.858344
vn -0.324259 -0.189947 -0.926664
vn 0.001251 -0.230567 -0.973052
vn 0.323191 -0.189367 -0.927183
vn 0.591968 0.308115 -0.744713
vn 0.992340 0.114719 -0.045656
vn 0.995025 0.084445 -0.052583
vn 0.991028 0.110508 -0.074801
vn 0.876034 0.471023 -0.103275
vn 0.469222 0.462325 -0.752373
vn 0.007660 0.997772 -0.066195
vn 0.499466 0.562243 0.659047
vn 0.067537 -0.595325 -0.800623
vn 0.061892 -0.998016 -0.008820
vn 0.090518 -0.995819 -0.009980
vn 0.093173 -0.563768 -0.820612
vn 0.178930 0.495682 -0.849849
vn 0.531480 0.440352 -0.723563
vn 0.195898 0.980285 -0.024873
vn 0.546403 0.837428 -0.010529
vn 0.217719 0.535386 0.816034
vn 0.587237 0.446150 0.675314
vn 0.543718 -0.470565 0.694876
vn 0.129887 -0.565386 0.814508
vn 0.508133 -0.861232 -0.002411
vn 0.105167 -0.994385 -0.011078
vn 0.094516 -0.583087 0.806848
vn 0.152562 -0.570605 0.806879
vn 0.202307 -0.576250 0.791803
vn 0.168828 -0.985595 -0.007141
vn 0.192816 -0.657796 0.728080
vn 0.558489 0.178930 0.809961
vn 0.229987 0.527970 0.817499
vn 0.176641 0.539994 0.822901
vn 0.175054 0.983917 -0.034700
vn 0.140385 0.486831 -0.862117
vn 0.132328 -0.638600 -0.758049
vn 0.238533 -0.735893 -0.633656
vn 0.161809 -0.984100 0.072939
vn 0.209723 -0.857143 -0.470412
vn 0.002411 -0.880184 -0.474593
vn 0.246132 -0.528398 -0.812494
vn 0.387585 -0.173040 -0.905423
vn 0.247017 0.503525 -0.827876
vn 0.255531 0.965941 -0.040223
vn 0.820917 0.570971 -0.002869
vn 0.002014 -0.551927 -0.833857
vn 0.009400 -0.722983 0.690756
vn 0.002503 -0.997131 0.075442
vn 0.325510 -0.262032 0.908475
vn 0.822779 0.080966 0.562517
vn 0.839259 0.130924 0.527696
vn 0.796442 0.236946 0.556322
vn 0.702994 0.363903 0.611011
vn 0.248573 0.625935 0.739158
vn -0.007294 0.226966 0.973846
vn -0.004608 -0.088412 0.996063
vn 0.005860 -0.314676 0.949156
vn 0.360759 0.195135 0.911985
vn 0.383282 -0.067446 0.921140
vn 0.496384 -0.448012 -0.743522
vn 0.999695 0.003479 -0.023591
usemtl mesh0115mat
s 1
f 253/49/251 254/49/252 255/49/253
f 253/49/251 256/49/254 254/49/252
f 256/49/254 253/49/251 257/49/255
f 258/49/256 256/49/254 257/49/255
f 258/49/256 259/49/257 256/49/254
f 260/49/258 259/49/257 258/49/256
f 261/49/259 259/49/257 260/49/258
f 261/49/259 262/49/260 259/49/257
f 263/49/261 262/49/260 261/49/259
f 263/49/261 264/49/262 262/49/260
f 265/49/263 264/49/262 263/49/261
f 266/49/264 264/49/262 265/49/263
f 266/49/264 267/49/265 264/49/262
f 266/49/264 268/49/266 267/49/265
f 269/49/267 268/49/266 266/49/264
f 269/49/267 270/49/268 268/49/266
f 271/49/269 270/49/268 269/49/267
f 272/49/270 270/49/268 271/49/269
f 272/49/270 255/49/253 270/49/268
f 273/49/271 255/49/253 272/49/270
f 273/49/271 253/49/251 255/49/253
f 274/49/272 253/49/251 273/49/271
f 275/49/273 253/49/251 274/49/272
f 257/49/255 253/49/251 275/49/273
f 276/49/274 257/49/255 275/49/273
f 277/49/275 257/49/255 276/49/274
f 277/49/275 258/49/256 257/49/255
f 278/49/276 258/49/256 277/49/275
f 279/49/277 258/49/256 278/49/276
f 279/49/277 260/49/258 258/49/256
f 280/49/278 260/49/258 279/49/277
f 281/49/279 260/49/258 280/49/278
f 281/49/279 261/49/259 260/49/258
f 282/49/280 261/49/259 281/49/279
f 282/49/280 263/49/261 261/49/259
f 283/49/281 263/49/261 282/49/280
f 283/49/281 265/49/263 263/49/261
f 284/49/282 265/49/263 283/49/281
f 284/49/282 285/49/283 265/49/263
f 286/49/284 285/49/283 284/49/282
f 287/49/285 285/49/283 286/49/284
f 288/49/286 285/49/283 287/49/285
f 266/49/264 285/49/283 288/49/286
f 266/49/264 265/49/263 285/49/283
f 288/49/286 269/49/267 266/49/264
f 288/49/286 271/49/269 269/49/267
f 288/49/286 289/49/287 271/49/269
f 287/49/285 289/49/287 288/49/286
f 287/49/285 290/49/288 289/49/287
f 291/49/289 290/49/288 287/49/285
f 291/49/289 292/49/290 290/49/288
f 291/49/289 293/49/291 292/49/290
f 294/49/292 293/49/291 291/49/289
f 294/49/292 295/49/293 293/49/291
f 296/49/294 295/49/293 294/49/292
f 296/49/294 297/49/295 295/49/293
f 298/49/296 297/49/295 296/49/294
f 298/49/296 299/49/297 297/49/295
f 284/49/282 299/49/297 298/49/296
f 283/49/281 299/49/297 284/49/282
f 283/49/281 300/49/298 299/49/297
f 282/49/280 300/49/298 283/49/281
f 282/49/280 301/49/299 300/49/298
f 281/49/279 301/49/299 282/49/280
f 281/49/279 302/49/300 301/49/299
f 280/49/278 302/49/300 281/49/279
f 280/49/278 303/49/301 302/49/300
f 280/49/278 304/49/302 303/49/301
f 279/49/277 304/49/302 280/49/278
f 279/49/277 305/49/303 304/49/302
f 278/49/276 305/49/303 279/49/277
f 278/49/276 306/49/304 305/49/303
f 278/49/276 307/49/305 306/49/304
f 277/49/275 307/49/305 278/49/276
f 276/49/274 307/49/305 277/49/275
f 276/49/274 308/49/306 307/49/305
f 275/49/273 308/49/306 276/49/274
f 274/49/272 308/49/306 275/49/273
f 309/49/307 308/49/306 274/49/272
f 306/49/304 308/49/306 309/49/307
f 306/49/304 307/49/305 308/49/306
f 310/49/308 311/49/309 312/49/310
f 310/49/308 313/49/311 311/49/309
f 314/49/312 313/49/311 310/49/308
f 314/49/312 315/49/313 313/49/311
f 316/49/314 315/49/313 314/49/312
f 316/49/314 317/49/315 315/49/313
f 318/49/316 317/49/315 316/49/314
f 318/49/316 319/49/317 317/49/315
f 318/49/316 320/49/318 319/49/317
f 321/49/319 320/49/318 318/49/316
f 321/49/319 322/49/320 320/49/318
f 321/49/319 323/49/321 322/49/320
f 324/49/322 323/49/321 321/49/319
f 324/49/322 311/49/309 323/49/321
f 325/49/323 311/49/309 324/49/322
f 325/49/323 312/49/310 311/49/309
f 326/49/324 312/49/310 325/49/323
f 326/49/324 327/49/325 312/49/310
f 326/49/324 328/49/326 327/49/325
f 326/49/324 329/49/327 328/49/326
f 326/49/324 330/49/328 329/49/327
f 325/49/323 330/49/328 326/49/324
f 324/49/322 330/49/328 325/49/323
f 324/49/322 331/49/329 330/49/328
f 321/49/319 331/49/329 324/49/322
f 318/49/316 331/49/329 321/49/319
f 318/49/316 332/49/330 331/49/329
f 316/49/314 332/49/330 318/49/316
f 316/49/314 333/49/331 332/49/330
f 314/49/312 333/49/331 316/49/314
f 310/49/308 333/49/331 314/49/312
f 310/49/308 334/49/332 333/49/331
f 312/49/310 334/49/332 310/49/308
f 327/49/325 334/49/332 312/49/310
f 327/49/325 335/49/333 334/49/332
f 336/49/334 335/49/333 327/49/325
f 336/49/334 337/49/335 335/49/333
f 338/49/336 337/49/335 336/49/334
f 339/49/337 337/49/335 338/49/336
f 339/49/337 335/49/333 337/49/335
f 340/49/338 335/49/333 339/49/337
f 340/49/338 334/49/332 335/49/333
f 341/49/339 334/49/332 340/49/338
f 341/49/339 333/49/331 334/49/332
f 341/49/339 332/49/330 333/49/331
f 342/49/340 332/49/330 341/49/339
f 342/49/340 331/49/329 332/49/330
f 342/49/340 330/49/328 331/49/329
f 342/49/340 329/49/327 330/49/328
f 343/49/341 329/49/327 342/49/340
f 343/49/341 303/49/301 329/49/327
f 343/49/341 302/49/300 303/49/301
f 342/49/340 302/49/300 343/49/341
f 341/49/339 302/49/300 342/49/340
f 340/49/338 302/49/300 341/49/339
f 340/49/338 301/49/299 302/49/300
f 339/49/337 301/49/299 340/49/338
f 339/49/337 300/49/298 301/49/299
f 344/49/342 300/49/298 339/49/337
f 344/49/342 299/49/297 300/49/298
f 344/49/342 297/49/295 299/49/297
f 344/49/342 295/49/293 297/49/295
f 344/49/342 338/49/336 295/49/293
f 339/49/337 338/49/336 344/49/342
f 328/49/326 345/49/343 346/49/344
f 328/49/326 347/49/345 345/49/343
f 329/49/327 347/49/345 328/49/326
f 329/49/327 348/49/346 347/49/345
f 303/49/301 348/49/346 329/49/327
f 304/49/302 348/49/346 303/49/301
f 304/49/302 349/49/347 348/49/346
f 304/49/302 350/49/348 349/49/347
f 305/49/303 350/49/348 304/49/302
f 305/49/303 351/49/349 350/49/348
f 306/49/304 351/49/349 305/49/303
f 309/49/307 351/49/349 306/49/304
f 274/49/272 351/49/349 309/49/307
f 273/49/271 351/49/349 274/49/272
f 273/49/271 352/49/350 351/49/349
f 272/49/270 352/49/350 273/49/271
f 272/49/270 353/49/351 352/49/350
f 271/49/269 353/49/351 272/49/270
f 289/49/287 353/49/351 271/49/269
f 289/49/287 354/49/352 353/49/351
f 290/49/288 354/49/352 289/49/287
f 290/49/288 355/49/353 354/49/352
f 292/49/290 355/49/353 290/49/288
f 292/49/290 345/49/343 355/49/353
f 293/49/291 345/49/343 292/49/290
f 293/49/291 346/49/344 345/49/343
f 295/49/293 346/49/344 293/49/291
f 338/49/336 346/49/344 295/49/293
f 336/49/334 346/49/344 338/49/336
f 336/49/334 328/49/326 346/49/344
f 327/49/325 328/49/326 336/49/334
f 352/49/350 350/49/348 351/49/349
f 352/49/350 356/49/354 350/49/348
f 353/49/351 356/49/354 352/49/350
f 354/49/352 356/49/354 353/49/351
f 354/49/352 357/49/355 356/49/354
f 355/49/353 357/49/355 354/49/352
f 355/49/353 347/49/345 357/49/355
f 345/49/343 347/49/345 355/49/353
f 356/49/354 349/49/347 350/49/348
f 357/49/355 349/49/347 356/49/354
f 357/49/355 348/49/346 349/49/347
f 347/49/345 348/49/346 357/49/355
f 315/49/313 358/49/356 313/49/311
f 315/49/313 359/49/357 358/49/356
f 317/49/315 359/49/357 315/49/313
f 319/49/317 359/49/357 317/49/315
f 320/49/318 359/49/357 319/49/317
f 322/49/320 359/49/357 320/49/318
f 322/49/320 358/49/356 359/49/357
f 323/49/321 358/49/356 322/49/320
f 323/49/321 313/49/311 358/49/356
f 311/49/309 313/49/311 323/49/321
